<?xml version="1.0" encoding="utf-8"?>
<!-- Generator: Adobe Illustrator 22.0.1, SVG Export Plug-In . SVG Version: 6.00 Build 0)  -->
<svg version="1.1" id="Layer_1" xmlns="http://www.w3.org/2000/svg" xmlns:xlink="http://www.w3.org/1999/xlink" x="0px" y="0px"
	 viewBox="0 0 766.1 199.2" style="enable-background:new 0 0 766.1 199.2;" xml:space="preserve">
<style type="text/css">
	.st0{fill-rule:evenodd;clip-rule:evenodd;fill:url(#SVGID_1_);}
	.st1{fill-rule:evenodd;clip-rule:evenodd;fill:url(#SVGID_2_);}
	.st2{fill-rule:evenodd;clip-rule:evenodd;fill:url(#SVGID_3_);}
	.st3{fill-rule:evenodd;clip-rule:evenodd;fill:url(#SVGID_4_);}
	.st4{fill-rule:evenodd;clip-rule:evenodd;fill:url(#SVGID_5_);}
	.st5{fill-rule:evenodd;clip-rule:evenodd;fill:url(#SVGID_6_);}
	.st6{fill-rule:evenodd;clip-rule:evenodd;fill:url(#SVGID_7_);}
	.st7{fill-rule:evenodd;clip-rule:evenodd;fill:url(#SVGID_8_);}
	.st8{fill-rule:evenodd;clip-rule:evenodd;fill:url(#SVGID_9_);}
	.st9{fill-rule:evenodd;clip-rule:evenodd;fill:url(#SVGID_10_);}
	.st10{fill:#FFFFFF;}
</style>
<g>
	<g>
		<g>
			
				<radialGradient id="SVGID_1_" cx="-382.1428" cy="1276.8271" r="859.4235" gradientTransform="matrix(0.2722 0 0 0.2722 116.2396 -125.1319)" gradientUnits="userSpaceOnUse">
				<stop  offset="0" style="stop-color:#FFFFFF"/>
				<stop  offset="0.5" style="stop-color:#41BBD0"/>
				<stop  offset="1" style="stop-color:#522581"/>
			</radialGradient>
			<path class="st0" d="M67.5,61.3c-5.4-2-11.3-3-17.4-2.7C25.7,59.8,6.9,80.5,8.1,104.8c1.2,24.3,21.8,43.1,46.1,41.9
				c63-3,65.4-75.7,117-91.7c-8.9-20.4-29.8-34.2-53.4-33.1C93.8,23.1,74,39.5,67.5,61.3L67.5,61.3z"/>
			<linearGradient id="SVGID_2_" gradientUnits="userSpaceOnUse" x1="72.8441" y1="114.5603" x2="34.3851" y2="66.4866">
				<stop  offset="0" style="stop-color:#40368B"/>
				<stop  offset="1" style="stop-color:#40368B;stop-opacity:0"/>
			</linearGradient>
			<path class="st1" d="M30.9,64.1c-30.8,26.7,0.7,52.4,21.5,32.8c8.5-8,11.1-22.3,15-35.5c-5.4-2-11.3-3-17.4-2.7
				C43.1,59,36.6,60.9,30.9,64.1L30.9,64.1z"/>
			<linearGradient id="SVGID_3_" gradientUnits="userSpaceOnUse" x1="84.2525" y1="137.0748" x2="157.9667" y2="48.0484">
				<stop  offset="0" style="stop-color:#40368B"/>
				<stop  offset="1" style="stop-color:#40368B;stop-opacity:0"/>
			</linearGradient>
			<path class="st2" d="M138.6,49.8c-18.1,12.6-15.3,47.4-30.3,67.4c19-23,32.3-52.7,63-62.2C164.5,44.2,149.7,42,138.6,49.8
				L138.6,49.8z"/>
			<linearGradient id="SVGID_4_" gradientUnits="userSpaceOnUse" x1="179.0229" y1="-62.7416" x2="70.7672" y2="86.1109">
				<stop  offset="0" style="stop-color:#FFFFFF"/>
				<stop  offset="1" style="stop-color:#FFFFFF;stop-opacity:0"/>
			</linearGradient>
			<path class="st3" d="M14.2,90.8c-2,26.6,23.1,43.4,45.9,31.6c24.3-12.6,29.1-41.6,40.6-66.2c10.2-21.9,32.6-30.3,56-14.9
				c-10-10-23.9-15.6-38.6-14.9c-21.7,1-40.3,15.6-46.5,36.4C66,81.1,60.6,108.5,35.7,108C25.4,107.8,16.2,101.1,14.2,90.8
				L14.2,90.8z"/>
			<linearGradient id="SVGID_5_" gradientUnits="userSpaceOnUse" x1="-63.8021" y1="209.0451" x2="77.216" y2="88.6813">
				<stop  offset="0" style="stop-color:#FFFFFF"/>
				<stop  offset="1" style="stop-color:#FFFFFF;stop-opacity:0"/>
			</linearGradient>
			<path class="st4" d="M54,142.5c22.3-1.1,37-11.2,50.8-27.9c14.4-19.2,11.4-54.4,31.3-68.3c6-4.2,13.4-6.1,20.6-5.2
				c-23.4-15.3-45.8-7-56,14.9c-11.5,24.6-16.3,53.6-40.6,66.2c-22.8,11.8-47.9-5-45.9-31.6C5.9,116.9,26.2,143.8,54,142.5L54,142.5
				z"/>
		</g>
		<g>
			
				<radialGradient id="SVGID_6_" cx="487.5754" cy="-982.4585" r="859.4299" gradientTransform="matrix(-0.2722 0 0 -0.2722 363.3017 -290.6553)" gradientUnits="userSpaceOnUse">
				<stop  offset="0" style="stop-color:#FFFFFF"/>
				<stop  offset="0.5" style="stop-color:#5EB88E"/>
				<stop  offset="1" style="stop-color:#39297A"/>
			</radialGradient>
			<path class="st5" d="M175.3,137.9c5.4,2,11.3,3,17.4,2.7c24.3-1.2,43.1-21.8,41.9-46.1c-1.1-24.3-21.8-43.1-46.1-41.9
				c-63,3-65.4,75.7-117,91.7c8.9,20.4,29.8,34.3,53.4,33.1C149,176.1,168.8,159.7,175.3,137.9L175.3,137.9z"/>
			
				<linearGradient id="SVGID_7_" gradientUnits="userSpaceOnUse" x1="737.6823" y1="-692.7264" x2="699.2232" y2="-740.8002" gradientTransform="matrix(-1 0 0 -1 907.6387 -608.0879)">
				<stop  offset="0" style="stop-color:#3C287A"/>
				<stop  offset="1" style="stop-color:#3C287A;stop-opacity:0"/>
			</linearGradient>
			<path class="st6" d="M211.9,135.1c30.8-26.7-0.7-52.4-21.5-32.8c-8.5,8-11.1,22.3-15,35.5c5.4,2,11.3,3,17.4,2.7
				C199.7,140.2,206.2,138.3,211.9,135.1L211.9,135.1z"/>
			
				<linearGradient id="SVGID_8_" gradientUnits="userSpaceOnUse" x1="749.0911" y1="-670.2122" x2="822.8056" y2="-759.239" gradientTransform="matrix(-1 0 0 -1 907.6387 -608.0879)">
				<stop  offset="0" style="stop-color:#3C287A"/>
				<stop  offset="1" style="stop-color:#3C287A;stop-opacity:0"/>
			</linearGradient>
			<path class="st7" d="M104.2,149.4c18.1-12.6,15.3-47.4,30.3-67.4c-19,23-32.3,52.7-63.1,62.2C78.3,155,93.1,157.2,104.2,149.4
				L104.2,149.4z"/>
			
				<linearGradient id="SVGID_9_" gradientUnits="userSpaceOnUse" x1="843.8621" y1="-870.0311" x2="735.6046" y2="-721.1761" gradientTransform="matrix(-1 0 0 -1 907.6387 -608.0879)">
				<stop  offset="0" style="stop-color:#FFFFFF"/>
				<stop  offset="1" style="stop-color:#FFFFFF;stop-opacity:0"/>
			</linearGradient>
			<path class="st8" d="M228.6,108.4c2-26.6-23.1-43.4-45.9-31.6c-24.3,12.6-29.1,41.6-40.6,66.2c-10.2,21.9-32.6,30.3-56,14.9
				c10,10,23.9,15.6,38.6,14.9c21.7-1,40.3-15.6,46.5-36.4c5.6-18.5,10.9-45.9,35.8-45.5C217.4,91.4,226.6,98.1,228.6,108.4
				L228.6,108.4z"/>
			
				<linearGradient id="SVGID_10_" gradientUnits="userSpaceOnUse" x1="601.0339" y1="-598.2403" x2="742.0535" y2="-718.6054" gradientTransform="matrix(-1 0 0 -1 907.6387 -608.0879)">
				<stop  offset="0" style="stop-color:#FFFFFF"/>
				<stop  offset="1" style="stop-color:#FFFFFF;stop-opacity:0"/>
			</linearGradient>
			<path class="st9" d="M188.8,56.7c-22.3,1.1-37,11.2-50.8,27.9c-14.4,19.2-11.4,54.4-31.3,68.3c-6,4.2-13.4,6.1-20.6,5.2
				c23.4,15.3,45.8,7,56-14.9c11.5-24.6,16.3-53.6,40.6-66.2c22.8-11.8,47.9,5,45.9,31.6C236.9,82.3,216.6,55.4,188.8,56.7
				L188.8,56.7z"/>
		</g>
	</g>
	<g>
		<path class="st10" d="M263.2,78.4H248V61h15.2V78.4z M263.2,137.8H248V81.5h15.2V137.8z"/>
		<path class="st10" d="M369.3,96.9c0,12.6-0.6,21.2-1.9,25.9c-1.6,6.1-5,10.2-10.3,12.4c-5,2.1-13.5,3.2-25.6,3.2h-23.7
			c-5.8,0-10.3-0.2-13.6-0.6c-8.8-1.1-14.6-5.7-17.6-13.8c-1.7-4.9-2.6-12.8-2.6-23.8c0-13.8,1.3-23.4,4-28.8
			c2.7-5.4,7.6-8.6,14.7-9.8c3.5-0.6,13.1-0.9,28.7-0.9h17.8c9.5,0,16.4,1.5,20.8,4.4c5.3,3.5,8.3,9.7,8.9,18.6
			C369.2,86.2,369.3,90.6,369.3,96.9z M352.3,92.8c0-7.1-0.8-11.6-2.5-13.5c-1.6-1.9-5.8-2.8-12.5-2.8c-4.1,0-10.3,0.1-18.5,0.2
			c-8.2,0.1-14.3,0.2-18.5,0.2c-2.6,0-4.4,0.3-5.5,0.9c-1.6,0.8-2.5,2.3-2.9,4.6c-0.5,2.8-0.7,11.5-0.7,26.1v4.8
			c0,3.9,0.6,6.3,1.8,7.4c1.2,1.1,3.9,1.7,8,1.8c7.7,0.2,17.4,0.3,29,0.3h8c2.9,0,5.3-0.2,7.2-0.6c4.5-0.9,6.8-6.3,6.8-16.3
			c0-1.4,0-3.6,0.1-6.5C352.3,96.5,352.3,94.3,352.3,92.8z"/>
		<path class="st10" d="M468.3,115.9c0,8.6-1.7,14.4-5.1,17.4c-3.4,3-9.4,4.5-18.2,4.5h-63V61.6h64c13.3,0,19.9,7.4,19.9,22.2
			c0,7.4-1.4,12.9-4.3,16.3C466.1,102.4,468.3,107.7,468.3,115.9z M448.8,85.7c0-2.9-0.3-5-1-6.2c-0.9-1.6-2.7-2.5-5.4-2.5H399v17.8
			h43.8c2.6,0,4.3-1,5.1-2.9C448.5,90.8,448.8,88.7,448.8,85.7z M451.1,117.1c0-2.7-0.5-4.6-1.4-5.5c-0.9-1-2.7-1.4-5.4-1.4H399
			v12.3h44.5c2.7,0,4.5-0.2,5.5-0.6C450.4,121.1,451.1,119.6,451.1,117.1z"/>
		<path class="st10" d="M547.9,137.8h-68.7V61.6h16.7v60.9h52V137.8z"/>
		<path class="st10" d="M657.3,137.8h-19.6l-8.8-14.8h-49.4l-8.7,14.8h-19.7L596,61.6h16.1L657.3,137.8z M620,107.7l-16-27.2
			l-15.8,27.2H620z"/>
		<path class="st10" d="M758,137.8h-29.3l-46.6-27.6h-6.3v27.6h-16.9V61.6h16.9v33.2h6l43.1-33.2h24.6L698.7,102L758,137.8z"/>
	</g>
</g>
</svg>
